<svg version="1.1" id="Layer_1" xmlns="http://www.w3.org/2000/svg" xmlns:xlink="http://www.w3.org/1999/xlink" x="0px" y="0px"
	 width="11.6px" height="10px" viewBox="0 0 11.6 10" style="enable-background:new 0 0 11.6 10;" xml:space="preserve">
<path d="M10.8,4.3H0L4.3,0l1.1,1.1L3.6,2.8h7.2V4.3z M0.8,5.8v1.5H8L6.3,9L7.4,10l4.3-4.3H0.8z"/>
</svg>
